[gd_resource type="StyleBoxFlat" format=2]

[resource]
bg_color = Color( 0.980392, 0.776471, 0.0313726, 1 )
border_width_left = 5
border_width_top = 5
border_width_right = 5
border_width_bottom = 5
border_blend = true
corner_radius_top_left = 10
corner_radius_top_right = 10
corner_radius_bottom_right = 10
corner_radius_bottom_left = 10
anti_aliasing_size = 2
